{
  "project_info": {
    "project_number": "481701651701",
    "firebase_url": "https://aps-jewellers-60517.firebaseio.com",
    "project_id": "aps-jewellers-60517",
    "storage_bucket": "aps-jewellers-60517.appspot.com"
  },
  "client": [
    {
      "client_info": {
        "mobilesdk_app_id": "1:481701651701:android:432afd08a9cd466f4051bc",
        "android_client_info": {
          "package_name": "com.karnanisoft.apsjewellers"
        }
      },
      "oauth_client": [
        {
          "client_id": "481701651701-am83vippd5qdmcdrln4iksjijg73j23c.apps.googleusercontent.com",
          "client_type": 1,
          "android_info": {
            "package_name": "com.karnanisoft.apsjewellers",
            "certificate_hash": "a40ac8cda9e7525a73c44f87260aabdb18d03b97"
          }
        },
        {
          "client_id": "481701651701-lovvi3j1acefhsah48e9akuo5591j5ie.apps.googleusercontent.com",
          "client_type": 3
        }
      ],
      "api_key": [
        {
          "current_key": "AIzaSyCcDKHL4ewtOulhEO5gO3D2BoIIReQrzp0"
        }
      ],
      "services": {
        "appinvite_service": {
          "other_platform_oauth_client": [
            {
              "client_id": "481701651701-lovvi3j1acefhsah48e9akuo5591j5ie.apps.googleusercontent.com",
              "client_type": 3
            }
          ]
        }
      }
    }
  ],
  "configuration_version": "1"
}